Olink data import
…
  dplyr::filter(
    OlinkID == "OID50794",
    is.na(AssayQC) | AssayQC != "PASS"
  ) |>
  dplyr::select(
    SampleID,
    PlateID,
    OlinkID,
    Assay,
    NPX,
    AssayQC,
    SampleQC
  )

# A tibble: 96 × 7
   SampleID     PlateID OlinkID  Assay      NPX AssayQC SampleQC
   <chr>        <chr>   <chr>    <chr>    <dbl> <chr>   <chr>   
 1 EX2_Con2_TGF plate1  OID50794 NPM1   0.00788 WARN    PASS    
 2 EX2_Con1_NC  plate1  OID50794 NPM1   0.330   WARN    PASS    
 3 CZD12_CTO_ME plate1  OID50794 NPM1   2.22    WARN    PASS    
 4 HT27_Fib_CM  plate1  OID50794 NPM1  -0.147   WARN    PASS    
 5 EX3_H1_TGF   plate1  OID50794 NPM1  -0.695   WARN    PASS    
 6 LV47_Fib_CM  plate1  OID50794 NPM1  -0.0259  WARN    PASS    
 7 EX1_H_NC     plate1  OID50794 NPM1  -0.990   WARN    PASS    
 8 Fib_Medium   plate1  OID50794 NPM1  -1.31    WARN    PASS    
 9 EX3_H1_NC    plate1  OID50794 NPM1  -1.13    WARN    PASS    
10 LV69_Fib_CM  plate1  OID50794 NPM1  -0.349   WARN    PASS    
# ℹ 86 more rows
…
